  _____ _____ ____ _____   _  __    _  _____  _             __        _______     ___ _____ 
 |_   _| ____/ ___|_   _| | |/ /   / \|_   _|/ \            \ \      / / ____|   |_ _|_   _|
   | | |  _| \___ \ | |   | ' /   / _ \ | | / _ \    _____   \ \ /\ / /|  _| _____| |  | |  
   | | | |___ ___) || |   | . \  / ___ \| |/ ___ \  |_____|   \ V  V / | |__|_____| |  | |  
   |_| |_____|____/ |_|   |_|\_\/_/   \_\_/_/   \_\            \_/\_/  |_____|   |___| |_|  
                                                                                            